{
	"project" : {
		"top" : "demo",
		"sub" : "master"
	},

	"repos" : {
		"pijs" : {
			"local"  : "pijs",
			"remote" : "jzcdgit:pijs_xm.git",
			"branch" : "int"
		},

		"client" : {
			"local"  : "client",
			"remote" : "jzcdgit:client.git",
			"branch" : "int"
 		}
	}
}
